<?xml version="1.0" encoding="UTF-8"?>
<svg width="13px" height="17px" viewBox="0 0 13 17" version="1.1" xmlns="http://www.w3.org/2000/svg" xmlns:xlink="http://www.w3.org/1999/xlink">
    <!-- Generator: sketchtool 55.1 (78136) - https://sketchapp.com -->
    <title>BD9DA65E-48B6-49C6-99B4-FCED53620F78</title>
    <desc>Created with sketchtool.</desc>
    <g id="Galeria" stroke="none" stroke-width="1" fill="none" fill-rule="evenodd" stroke-linecap="round" stroke-linejoin="round">
        <g id="Galería" transform="translate(-358.000000, -918.000000)" stroke="#5E8257" stroke-width="2">
            <g id="container" transform="translate(296.000000, 249.000000)">
                <g id="bottom" transform="translate(38.000000, 653.000000)">
                    <g id="btn/outline/icon/orange/standard">
                        <g id="icon-text" transform="translate(21.000000, 14.000000)">
                            <g id="icon/misc/delete">
                                <path d="M4,6 L15,6 L14,18 L5,18 L4,6 Z M8,13 L8,10 M4.16425577,3 L14.8357442,3 M11.0751953,13 L11.0751953,10" id="Combined-Shape2122"></path>
                            </g>
                        </g>
                    </g>
                </g>
            </g>
        </g>
    </g>
</svg>