<?xml version="1.0" encoding="UTF-8"?>
<svg width="16px" height="17px" viewBox="0 0 16 17" version="1.1" xmlns="http://www.w3.org/2000/svg" xmlns:xlink="http://www.w3.org/1999/xlink">
    <!-- Generator: Sketch 53 (72520) - https://sketchapp.com -->
    <title>Combined Shape</title>
    <desc>Created with Sketch.</desc>
    <g id="Symbols" stroke="none" stroke-width="1" fill="none" fill-rule="evenodd" stroke-linecap="round" stroke-linejoin="round">
        <g id="icon/misc/edit" transform="translate(-8.000000, -8.000000)" stroke="#1B475E" stroke-width="2">
            <path d="M15.1777344,22 L9,22 L9,9 L22,9 L22,15.9907227 M15.1156006,15.9886475 L20.0638837,20.9369306 M22.0588918,22.9319387 L22.5006064,23.3736533" id="Combined-Shape"></path>
        </g>
    </g>
</svg>