<?xml version="1.0" encoding="UTF-8"?>
<svg width="17px" height="15px" viewBox="0 0 17 15" version="1.1" xmlns="http://www.w3.org/2000/svg" xmlns:xlink="http://www.w3.org/1999/xlink">
    <!-- Generator: Sketch 53 (72520) - https://sketchapp.com -->
    <title>iconass</title>
    <desc>Created with Sketch.</desc>
    <g id="Symbols" stroke="none" stroke-width="1" fill="none" fill-rule="evenodd">
        <g id="icon/social/twitter" transform="translate(-8.000000, -8.000000)" fill="#1B475E" fill-rule="nonzero">
            <path d="M22.9973587,10.3507842 C23.7177907,9.88685607 24.2705875,9.1512292 24.5310207,8.27492041 C23.8564888,8.70448354 23.1111111,9.01699072 22.3148442,9.18452034 C21.6802254,8.45533692 20.7731995,8 19.7693843,8 C17.8445736,8 16.2829724,9.68066576 16.2829724,11.7533079 C16.2829724,12.0475586 16.3129072,12.3332181 16.3727769,12.6081385 C13.4740858,12.451348 10.9046781,10.9586161 9.18342431,8.6851532 C8.88307801,9.24143746 8.71145155,9.88685607 8.71145155,10.5741571 C8.71145155,11.8757334 9.32711158,13.0248148 10.2630745,13.698155 C9.69231672,13.6798985 9.15348946,13.5091472 8.68251453,13.2299312 L8.68251453,13.2761092 C8.68251453,15.0953091 9.88489758,16.6127408 11.4814228,16.9563913 C11.1890591,17.0444518 10.8807302,17.088482 10.562423,17.088482 C10.3379116,17.088482 10.1183894,17.0659299 9.90585197,17.0218997 C10.3498855,18.5124838 11.637084,19.5982046 13.1637612,19.6272001 C11.9703586,20.6345257 10.4656336,21.2348402 8.83218877,21.2348402 C8.5508012,21.2348402 8.27240711,21.2176576 8,21.1832926 C9.54364031,22.2464613 11.3776486,22.868254 13.3463638,22.868254 C19.7623995,22.868254 23.2697658,17.1496947 23.2697658,12.1893145 C23.2697658,12.0260805 23.2667723,11.8628465 23.2607853,11.7028342 C23.942302,11.1733977 24.5340142,10.5129443 25,9.76013494 C24.3753595,10.0586813 23.7028233,10.260576 22.9973587,10.3507842 Z" id="iconass"></path>
        </g>
    </g>
</svg>