<?xml version="1.0" encoding="UTF-8"?>
<svg width="32px" height="32px" viewBox="0 0 32 32" version="1.1" xmlns="http://www.w3.org/2000/svg" xmlns:xlink="http://www.w3.org/1999/xlink">
    <!-- Generator: Sketch 53 (72520) - https://sketchapp.com -->
    <title>icon/misc/pwd</title>
    <desc>Created with Sketch.</desc>
    <g id="icon/misc/pwd" stroke="none" stroke-width="1" fill="none" fill-rule="evenodd">
        <rect id="Rectangle" stroke="#B9B9B9" stroke-width="2" stroke-linecap="round" stroke-linejoin="round" x="11" y="14" width="11" height="9" rx="1"></rect>
        <path d="M13,13.5 L13,12.9326172 L13,12.5 C13,10.5670034 14.5670034,9 16.5,9 L16.5,9 L16.5,9 C18.4329966,9 20,10.5670034 20,12.5 L20,13.0859375 L20,13.5" id="Shape" stroke="#B9B9B9" stroke-width="2" stroke-linecap="round" stroke-linejoin="round"></path>
        <circle id="Oval" fill="#B9B9B9" cx="16.5" cy="17.5" r="1.5"></circle>
        <polygon id="Path-26" fill="#B9B9B9" points="16 17.9236265 15 20.2785433 18 20.2785433 17.1564941 17.9236265"></polygon>
    </g>
</svg>