<?xml version="1.0" encoding="UTF-8"?>
<svg width="32px" height="32px" viewBox="0 0 32 32" version="1.1" xmlns="http://www.w3.org/2000/svg" xmlns:xlink="http://www.w3.org/1999/xlink">
    <!-- Generator: Sketch 55.2 (78181) - https://sketchapp.com -->
    <title>icon/side-bar/gallery-active</title>
    <desc>Created with Sketch.</desc>
    <g id="icon/side-bar/gallery-active" stroke="none" stroke-width="1" fill="none" fill-rule="evenodd" stroke-linecap="round" stroke-linejoin="round">
        <path d="M8,9 L24,9 C25.1045695,9 26,9.8954305 26,11 L26,22 C26,23.1045695 25.1045695,24 24,24 L8,24 C6.8954305,24 6,23.1045695 6,22 L6,11 C6,9.8954305 6.8954305,9 8,9 Z M6,22.7865755 L11.5853515,18.0262665 L14.3780273,20.406421 L21.89479,14 L25.7172852,17.2578537 M15,15 C15.5522847,15 16,14.5522847 16,14 C16,13.4477153 15.5522847,13 15,13 C14.4477153,13 14,13.4477153 14,14 C14,14.5522847 14.4477153,15 15,15 Z" id="Combined-Shape" stroke="#1B475E" stroke-width="2"></path>
    </g>
</svg>