<?xml version="1.0" encoding="UTF-8"?>
<svg width="32px" height="32px" viewBox="0 0 32 32" version="1.1" xmlns="http://www.w3.org/2000/svg" xmlns:xlink="http://www.w3.org/1999/xlink">
    <!-- Generator: Sketch 55.2 (78181) - https://sketchapp.com -->
    <title>icon/side-bar/about</title>
    <desc>Created with Sketch.</desc>
    <g id="icon/side-bar/about" stroke="none" stroke-width="1" fill="none" fill-rule="evenodd" stroke-linecap="round">
        <path d="M18.8567136,19.9236265 C20.7022333,20.6904524 22,21.5104014 22,23.6334601 M10,23.6334601 C10,21.5104014 11.2977667,20.6904524 13.1432864,19.9236265 M16.0016992,17.7811762 C17.5981269,17.7811762 18.8922873,16.4870158 18.8922873,14.8905881 C18.8922873,13.2941604 17.5981269,12 16.0016992,12 C14.4052715,12 13.1111111,13.2941604 13.1111111,14.8905881 C13.1111111,16.4870158 14.4052715,17.7811762 16.0016992,17.7811762 Z M24.6155829,18.4420835 C25.8382397,18.9501056 26,19.3006409 26,20.7071673 M22.0261257,16.8300292 C23.0837591,16.8300292 23.9411403,15.972648 23.9411403,14.9150146 C23.9411403,13.8573812 23.0837591,13 22.0261257,13 M7.41054285,18.4420835 C6.18788603,18.9501056 6.02612572,19.3006409 6.02612572,20.7071673 M10,16.8300292 C8.94236664,16.8300292 8.08498539,15.972648 8.08498539,14.9150146 C8.08498539,13.8573812 8.94236664,13 10,13" id="Combined-Shape" stroke="#C7C7C7" stroke-width="2"></path>
    </g>
</svg>