<?xml version="1.0" encoding="UTF-8"?>
<svg width="32px" height="32px" viewBox="0 0 32 32" version="1.1" xmlns="http://www.w3.org/2000/svg" xmlns:xlink="http://www.w3.org/1999/xlink">
    <!-- Generator: Sketch 55.2 (78181) - https://sketchapp.com -->
    <title>icon/side-bar/contacto-active</title>
    <desc>Created with Sketch.</desc>
    <g id="icon/side-bar/contacto-active" stroke="none" stroke-width="1" fill="none" fill-rule="evenodd" stroke-linecap="round" stroke-linejoin="round">
        <path d="M8.09599609,10.8571429 C8.30078125,11.1023996 10.9354492,13.1023996 16,16.8571429 L23.9040039,10.8571429 M9,10 L23,10 C24.1045695,10 25,10.8954305 25,12 L25,20 C25,21.1045695 24.1045695,22 23,22 L9,22 C7.8954305,22 7,21.1045695 7,20 L7,12 C7,10.8954305 7.8954305,10 9,10 Z" id="Combined-Shape" stroke="#1B475E" stroke-width="2"></path>
    </g>
</svg>